[
  {
    "lang" : "PL",
    "categories": [
      {
        "name": "kategoria 1",
        "url": "http://www.adres-url.pl/pl",
        "children": [
          {
            "name": "kategoria 1.1",
            "url": "http://www.adres-url.pl/pl",
            "children": [
              {
                "name": "kategoria 1.1.1",
                "url": "http://www.adres-url.pl/pl"
              },
              {
                "name": "kategoria 1.1.2",
                "url": "http://www.adres-url.pl/pl"
              },
              {
                "name": "kategoria 1.1.3",
                "url": "http://www.adres-url.pl/pl"
              }
            ]
          },
          {
            "name": "kategoria 1.2",
            "url": "http://www.adres-url.pl/pl",
            "children": [
              {
                "name": "kategoria 1.2.1",
                "url": "http://www.adres-url.pl/pl"
              },
              {
                "name": "kategoria 1.2.2",
                "url": "http://www.adres-url.pl/pl"
              },
              {
                "name": "kategoria 1.2.3",
                "url": "http://www.adres-url.pl/pl"
              }
            ]
          },
          {
            "name": "kategoria 1.3",
            "url": "http://www.adres-url.pl/pl",
            "children": [
              {
                "name": "kategoria 1.3.1",
                "url": "http://www.adres-url.pl/pl"
              },
              {
                "name": "kategoria 1.3.2",
                "url": "http://www.adres-url.pl/pl"
              },
              {
                "name": "kategoria 1.3.3",
                "url": "http://www.adres-url.pl/pl"
              }
            ]
          }
        ]
      },
      {
        "name": "kategoria 2",
        "url": "http://www.adres-url.pl/pl",
        "children": [
          {
            "name": "kategoria 2.1",
            "url": "http://www.adres-url.pl/pl",
            "children": [
              {
                "name": "kategoria 2.1.1",
                "url": "http://www.adres-url.pl/pl"
              },
              {
                "name": "kategoria 2.1.2",
                "url": "http://www.adres-url.pl/pl"
              }
            ]
          },
          {
            "name": "kategoria 2.2",
            "url": "http://www.adres-url.pl/pl",
            "children": [
              {
                "name": "kategoria 2.2.1",
                "url": "http://www.adres-url.pl/pl"
              },
              {
                "name": "kategoria 2.2.2",
                "url": "http://www.adres-url.pl/pl"
              }
            ]
          }
        ]
      }
    ]
  }
]